%YAML 1.1
%TAG !u! tag:unity3d.com,2011:
--- !u!74 &7400000
AnimationClip:
  m_ObjectHideFlags: 0
  m_PrefabParentObject: {fileID: 0}
  m_PrefabInternal: {fileID: 0}
  m_Name: player_idle
  serializedVersion: 6
  m_Legacy: 0
  m_Compressed: 0
  m_UseHighQualityCurve: 1
  m_RotationCurves: []
  m_CompressedRotationCurves: []
  m_EulerCurves: []
  m_PositionCurves: []
  m_ScaleCurves: []
  m_FloatCurves: []
  m_PPtrCurves:
  - curve:
    - time: 0
      value: {fileID: 21300000, guid: 56c54230d7a9f67419d60941ef3caeff, type: 3}
    - time: 0.083333336
      value: {fileID: 21300000, guid: 6e9426bf584354e408a57adc6fabc9f8, type: 3}
    - time: 0.16666667
      value: {fileID: 21300000, guid: 98c2c3c0467352641b9876a3c3d77cff, type: 3}
    - time: 0.25
      value: {fileID: 21300000, guid: 281ab49f3e497a3488518839c0edeab7, type: 3}
    - time: 0.33333334
      value: {fileID: 21300000, guid: 7d16904c62879d04991a3b139d7af0fc, type: 3}
    - time: 0.41666666
      value: {fileID: 21300000, guid: 55f472b087ce72245a090814701d267c, type: 3}
    - time: 0.5
      value: {fileID: 21300000, guid: daa55f6616679764f9201095fe8990c7, type: 3}
    - time: 0.5833333
      value: {fileID: 21300000, guid: 59fe9e6826dda364496ea877e5d7f325, type: 3}
    - time: 0.6666667
      value: {fileID: 21300000, guid: e2d09a74d2e9ba746a720900b9b24634, type: 3}
    - time: 0.75
      value: {fileID: 21300000, guid: c792134e127b1e0479b26358714bc12e, type: 3}
    - time: 0.8333333
      value: {fileID: 21300000, guid: 73f12c1f51e92494ab77140dded8661b, type: 3}
    - time: 0.9166667
      value: {fileID: 21300000, guid: e8fb292280b97924986a9105516aa01e, type: 3}
    attribute: m_Sprite
    path: 
    classID: 212
    script: {fileID: 0}
  m_SampleRate: 12
  m_WrapMode: 0
  m_Bounds:
    m_Center: {x: 0, y: 0, z: 0}
    m_Extent: {x: 0, y: 0, z: 0}
  m_ClipBindingConstant:
    genericBindings:
    - serializedVersion: 2
      path: 0
      attribute: 0
      script: {fileID: 0}
      typeID: 212
      customType: 23
      isPPtrCurve: 1
    pptrCurveMapping:
    - {fileID: 21300000, guid: 56c54230d7a9f67419d60941ef3caeff, type: 3}
    - {fileID: 21300000, guid: 6e9426bf584354e408a57adc6fabc9f8, type: 3}
    - {fileID: 21300000, guid: 98c2c3c0467352641b9876a3c3d77cff, type: 3}
    - {fileID: 21300000, guid: 281ab49f3e497a3488518839c0edeab7, type: 3}
    - {fileID: 21300000, guid: 7d16904c62879d04991a3b139d7af0fc, type: 3}
    - {fileID: 21300000, guid: 55f472b087ce72245a090814701d267c, type: 3}
    - {fileID: 21300000, guid: daa55f6616679764f9201095fe8990c7, type: 3}
    - {fileID: 21300000, guid: 59fe9e6826dda364496ea877e5d7f325, type: 3}
    - {fileID: 21300000, guid: e2d09a74d2e9ba746a720900b9b24634, type: 3}
    - {fileID: 21300000, guid: c792134e127b1e0479b26358714bc12e, type: 3}
    - {fileID: 21300000, guid: 73f12c1f51e92494ab77140dded8661b, type: 3}
    - {fileID: 21300000, guid: e8fb292280b97924986a9105516aa01e, type: 3}
  m_AnimationClipSettings:
    serializedVersion: 2
    m_AdditiveReferencePoseClip: {fileID: 0}
    m_AdditiveReferencePoseTime: 0
    m_StartTime: 0
    m_StopTime: 1
    m_OrientationOffsetY: 0
    m_Level: 0
    m_CycleOffset: 0
    m_HasAdditiveReferencePose: 0
    m_LoopTime: 1
    m_LoopBlend: 0
    m_LoopBlendOrientation: 0
    m_LoopBlendPositionY: 0
    m_LoopBlendPositionXZ: 0
    m_KeepOriginalOrientation: 0
    m_KeepOriginalPositionY: 1
    m_KeepOriginalPositionXZ: 0
    m_HeightFromFeet: 0
    m_Mirror: 0
  m_EditorCurves: []
  m_EulerEditorCurves: []
  m_HasGenericRootTransform: 0
  m_HasMotionFloatCurves: 0
  m_GenerateMotionCurves: 0
  m_Events: []
